(kicad_sch (version 20211123) (generator eeschema)

  (uuid 81a15393-727e-448b-a777-b18773023d89)

  (paper "A4")

  (lib_symbols
    (symbol "Connector_Generic:Conn_02x20_Odd_Even" (pin_names (offset 1.016) hide) (in_bom yes) (on_board yes)
      (property "Reference" "J" (id 0) (at 1.27 25.4 0)
        (effects (font (size 1.27 1.27)))
      )
      (property "Value" "Conn_02x20_Odd_Even" (id 1) (at 1.27 -27.94 0)
        (effects (font (size 1.27 1.27)))
      )
      (property "Footprint" "" (id 2) (at 0 0 0)
        (effects (font (size 1.27 1.27)) hide)
      )
      (property "Datasheet" "~" (id 3) (at 0 0 0)
        (effects (font (size 1.27 1.27)) hide)
      )
      (property "ki_keywords" "connector" (id 4) (at 0 0 0)
        (effects (font (size 1.27 1.27)) hide)
      )
      (property "ki_description" "Generic connector, double row, 02x20, odd/even pin numbering scheme (row 1 odd numbers, row 2 even numbers), script generated (kicad-library-utils/schlib/autogen/connector/)" (id 5) (at 0 0 0)
        (effects (font (size 1.27 1.27)) hide)
      )
      (property "ki_fp_filters" "Connector*:*_2x??_*" (id 6) (at 0 0 0)
        (effects (font (size 1.27 1.27)) hide)
      )
      (symbol "Conn_02x20_Odd_Even_1_1"
        (rectangle (start -1.27 -25.273) (end 0 -25.527)
          (stroke (width 0.1524) (type default) (color 0 0 0 0))
          (fill (type none))
        )
        (rectangle (start -1.27 -22.733) (end 0 -22.987)
          (stroke (width 0.1524) (type default) (color 0 0 0 0))
          (fill (type none))
        )
        (rectangle (start -1.27 -20.193) (end 0 -20.447)
          (stroke (width 0.1524) (type default) (color 0 0 0 0))
          (fill (type none))
        )
        (rectangle (start -1.27 -17.653) (end 0 -17.907)
          (stroke (width 0.1524) (type default) (color 0 0 0 0))
          (fill (type none))
        )
        (rectangle (start -1.27 -15.113) (end 0 -15.367)
          (stroke (width 0.1524) (type default) (color 0 0 0 0))
          (fill (type none))
        )
        (rectangle (start -1.27 -12.573) (end 0 -12.827)
          (stroke (width 0.1524) (type default) (color 0 0 0 0))
          (fill (type none))
        )
        (rectangle (start -1.27 -10.033) (end 0 -10.287)
          (stroke (width 0.1524) (type default) (color 0 0 0 0))
          (fill (type none))
        )
        (rectangle (start -1.27 -7.493) (end 0 -7.747)
          (stroke (width 0.1524) (type default) (color 0 0 0 0))
          (fill (type none))
        )
        (rectangle (start -1.27 -4.953) (end 0 -5.207)
          (stroke (width 0.1524) (type default) (color 0 0 0 0))
          (fill (type none))
        )
        (rectangle (start -1.27 -2.413) (end 0 -2.667)
          (stroke (width 0.1524) (type default) (color 0 0 0 0))
          (fill (type none))
        )
        (rectangle (start -1.27 0.127) (end 0 -0.127)
          (stroke (width 0.1524) (type default) (color 0 0 0 0))
          (fill (type none))
        )
        (rectangle (start -1.27 2.667) (end 0 2.413)
          (stroke (width 0.1524) (type default) (color 0 0 0 0))
          (fill (type none))
        )
        (rectangle (start -1.27 5.207) (end 0 4.953)
          (stroke (width 0.1524) (type default) (color 0 0 0 0))
          (fill (type none))
        )
        (rectangle (start -1.27 7.747) (end 0 7.493)
          (stroke (width 0.1524) (type default) (color 0 0 0 0))
          (fill (type none))
        )
        (rectangle (start -1.27 10.287) (end 0 10.033)
          (stroke (width 0.1524) (type default) (color 0 0 0 0))
          (fill (type none))
        )
        (rectangle (start -1.27 12.827) (end 0 12.573)
          (stroke (width 0.1524) (type default) (color 0 0 0 0))
          (fill (type none))
        )
        (rectangle (start -1.27 15.367) (end 0 15.113)
          (stroke (width 0.1524) (type default) (color 0 0 0 0))
          (fill (type none))
        )
        (rectangle (start -1.27 17.907) (end 0 17.653)
          (stroke (width 0.1524) (type default) (color 0 0 0 0))
          (fill (type none))
        )
        (rectangle (start -1.27 20.447) (end 0 20.193)
          (stroke (width 0.1524) (type default) (color 0 0 0 0))
          (fill (type none))
        )
        (rectangle (start -1.27 22.987) (end 0 22.733)
          (stroke (width 0.1524) (type default) (color 0 0 0 0))
          (fill (type none))
        )
        (rectangle (start -1.27 24.13) (end 3.81 -26.67)
          (stroke (width 0.254) (type default) (color 0 0 0 0))
          (fill (type background))
        )
        (rectangle (start 3.81 -25.273) (end 2.54 -25.527)
          (stroke (width 0.1524) (type default) (color 0 0 0 0))
          (fill (type none))
        )
        (rectangle (start 3.81 -22.733) (end 2.54 -22.987)
          (stroke (width 0.1524) (type default) (color 0 0 0 0))
          (fill (type none))
        )
        (rectangle (start 3.81 -20.193) (end 2.54 -20.447)
          (stroke (width 0.1524) (type default) (color 0 0 0 0))
          (fill (type none))
        )
        (rectangle (start 3.81 -17.653) (end 2.54 -17.907)
          (stroke (width 0.1524) (type default) (color 0 0 0 0))
          (fill (type none))
        )
        (rectangle (start 3.81 -15.113) (end 2.54 -15.367)
          (stroke (width 0.1524) (type default) (color 0 0 0 0))
          (fill (type none))
        )
        (rectangle (start 3.81 -12.573) (end 2.54 -12.827)
          (stroke (width 0.1524) (type default) (color 0 0 0 0))
          (fill (type none))
        )
        (rectangle (start 3.81 -10.033) (end 2.54 -10.287)
          (stroke (width 0.1524) (type default) (color 0 0 0 0))
          (fill (type none))
        )
        (rectangle (start 3.81 -7.493) (end 2.54 -7.747)
          (stroke (width 0.1524) (type default) (color 0 0 0 0))
          (fill (type none))
        )
        (rectangle (start 3.81 -4.953) (end 2.54 -5.207)
          (stroke (width 0.1524) (type default) (color 0 0 0 0))
          (fill (type none))
        )
        (rectangle (start 3.81 -2.413) (end 2.54 -2.667)
          (stroke (width 0.1524) (type default) (color 0 0 0 0))
          (fill (type none))
        )
        (rectangle (start 3.81 0.127) (end 2.54 -0.127)
          (stroke (width 0.1524) (type default) (color 0 0 0 0))
          (fill (type none))
        )
        (rectangle (start 3.81 2.667) (end 2.54 2.413)
          (stroke (width 0.1524) (type default) (color 0 0 0 0))
          (fill (type none))
        )
        (rectangle (start 3.81 5.207) (end 2.54 4.953)
          (stroke (width 0.1524) (type default) (color 0 0 0 0))
          (fill (type none))
        )
        (rectangle (start 3.81 7.747) (end 2.54 7.493)
          (stroke (width 0.1524) (type default) (color 0 0 0 0))
          (fill (type none))
        )
        (rectangle (start 3.81 10.287) (end 2.54 10.033)
          (stroke (width 0.1524) (type default) (color 0 0 0 0))
          (fill (type none))
        )
        (rectangle (start 3.81 12.827) (end 2.54 12.573)
          (stroke (width 0.1524) (type default) (color 0 0 0 0))
          (fill (type none))
        )
        (rectangle (start 3.81 15.367) (end 2.54 15.113)
          (stroke (width 0.1524) (type default) (color 0 0 0 0))
          (fill (type none))
        )
        (rectangle (start 3.81 17.907) (end 2.54 17.653)
          (stroke (width 0.1524) (type default) (color 0 0 0 0))
          (fill (type none))
        )
        (rectangle (start 3.81 20.447) (end 2.54 20.193)
          (stroke (width 0.1524) (type default) (color 0 0 0 0))
          (fill (type none))
        )
        (rectangle (start 3.81 22.987) (end 2.54 22.733)
          (stroke (width 0.1524) (type default) (color 0 0 0 0))
          (fill (type none))
        )
        (pin passive line (at -5.08 22.86 0) (length 3.81)
          (name "Pin_1" (effects (font (size 1.27 1.27))))
          (number "1" (effects (font (size 1.27 1.27))))
        )
        (pin passive line (at 7.62 12.7 180) (length 3.81)
          (name "Pin_10" (effects (font (size 1.27 1.27))))
          (number "10" (effects (font (size 1.27 1.27))))
        )
        (pin passive line (at -5.08 10.16 0) (length 3.81)
          (name "Pin_11" (effects (font (size 1.27 1.27))))
          (number "11" (effects (font (size 1.27 1.27))))
        )
        (pin passive line (at 7.62 10.16 180) (length 3.81)
          (name "Pin_12" (effects (font (size 1.27 1.27))))
          (number "12" (effects (font (size 1.27 1.27))))
        )
        (pin passive line (at -5.08 7.62 0) (length 3.81)
          (name "Pin_13" (effects (font (size 1.27 1.27))))
          (number "13" (effects (font (size 1.27 1.27))))
        )
        (pin passive line (at 7.62 7.62 180) (length 3.81)
          (name "Pin_14" (effects (font (size 1.27 1.27))))
          (number "14" (effects (font (size 1.27 1.27))))
        )
        (pin passive line (at -5.08 5.08 0) (length 3.81)
          (name "Pin_15" (effects (font (size 1.27 1.27))))
          (number "15" (effects (font (size 1.27 1.27))))
        )
        (pin passive line (at 7.62 5.08 180) (length 3.81)
          (name "Pin_16" (effects (font (size 1.27 1.27))))
          (number "16" (effects (font (size 1.27 1.27))))
        )
        (pin passive line (at -5.08 2.54 0) (length 3.81)
          (name "Pin_17" (effects (font (size 1.27 1.27))))
          (number "17" (effects (font (size 1.27 1.27))))
        )
        (pin passive line (at 7.62 2.54 180) (length 3.81)
          (name "Pin_18" (effects (font (size 1.27 1.27))))
          (number "18" (effects (font (size 1.27 1.27))))
        )
        (pin passive line (at -5.08 0 0) (length 3.81)
          (name "Pin_19" (effects (font (size 1.27 1.27))))
          (number "19" (effects (font (size 1.27 1.27))))
        )
        (pin passive line (at 7.62 22.86 180) (length 3.81)
          (name "Pin_2" (effects (font (size 1.27 1.27))))
          (number "2" (effects (font (size 1.27 1.27))))
        )
        (pin passive line (at 7.62 0 180) (length 3.81)
          (name "Pin_20" (effects (font (size 1.27 1.27))))
          (number "20" (effects (font (size 1.27 1.27))))
        )
        (pin passive line (at -5.08 -2.54 0) (length 3.81)
          (name "Pin_21" (effects (font (size 1.27 1.27))))
          (number "21" (effects (font (size 1.27 1.27))))
        )
        (pin passive line (at 7.62 -2.54 180) (length 3.81)
          (name "Pin_22" (effects (font (size 1.27 1.27))))
          (number "22" (effects (font (size 1.27 1.27))))
        )
        (pin passive line (at -5.08 -5.08 0) (length 3.81)
          (name "Pin_23" (effects (font (size 1.27 1.27))))
          (number "23" (effects (font (size 1.27 1.27))))
        )
        (pin passive line (at 7.62 -5.08 180) (length 3.81)
          (name "Pin_24" (effects (font (size 1.27 1.27))))
          (number "24" (effects (font (size 1.27 1.27))))
        )
        (pin passive line (at -5.08 -7.62 0) (length 3.81)
          (name "Pin_25" (effects (font (size 1.27 1.27))))
          (number "25" (effects (font (size 1.27 1.27))))
        )
        (pin passive line (at 7.62 -7.62 180) (length 3.81)
          (name "Pin_26" (effects (font (size 1.27 1.27))))
          (number "26" (effects (font (size 1.27 1.27))))
        )
        (pin passive line (at -5.08 -10.16 0) (length 3.81)
          (name "Pin_27" (effects (font (size 1.27 1.27))))
          (number "27" (effects (font (size 1.27 1.27))))
        )
        (pin passive line (at 7.62 -10.16 180) (length 3.81)
          (name "Pin_28" (effects (font (size 1.27 1.27))))
          (number "28" (effects (font (size 1.27 1.27))))
        )
        (pin passive line (at -5.08 -12.7 0) (length 3.81)
          (name "Pin_29" (effects (font (size 1.27 1.27))))
          (number "29" (effects (font (size 1.27 1.27))))
        )
        (pin passive line (at -5.08 20.32 0) (length 3.81)
          (name "Pin_3" (effects (font (size 1.27 1.27))))
          (number "3" (effects (font (size 1.27 1.27))))
        )
        (pin passive line (at 7.62 -12.7 180) (length 3.81)
          (name "Pin_30" (effects (font (size 1.27 1.27))))
          (number "30" (effects (font (size 1.27 1.27))))
        )
        (pin passive line (at -5.08 -15.24 0) (length 3.81)
          (name "Pin_31" (effects (font (size 1.27 1.27))))
          (number "31" (effects (font (size 1.27 1.27))))
        )
        (pin passive line (at 7.62 -15.24 180) (length 3.81)
          (name "Pin_32" (effects (font (size 1.27 1.27))))
          (number "32" (effects (font (size 1.27 1.27))))
        )
        (pin passive line (at -5.08 -17.78 0) (length 3.81)
          (name "Pin_33" (effects (font (size 1.27 1.27))))
          (number "33" (effects (font (size 1.27 1.27))))
        )
        (pin passive line (at 7.62 -17.78 180) (length 3.81)
          (name "Pin_34" (effects (font (size 1.27 1.27))))
          (number "34" (effects (font (size 1.27 1.27))))
        )
        (pin passive line (at -5.08 -20.32 0) (length 3.81)
          (name "Pin_35" (effects (font (size 1.27 1.27))))
          (number "35" (effects (font (size 1.27 1.27))))
        )
        (pin passive line (at 7.62 -20.32 180) (length 3.81)
          (name "Pin_36" (effects (font (size 1.27 1.27))))
          (number "36" (effects (font (size 1.27 1.27))))
        )
        (pin passive line (at -5.08 -22.86 0) (length 3.81)
          (name "Pin_37" (effects (font (size 1.27 1.27))))
          (number "37" (effects (font (size 1.27 1.27))))
        )
        (pin passive line (at 7.62 -22.86 180) (length 3.81)
          (name "Pin_38" (effects (font (size 1.27 1.27))))
          (number "38" (effects (font (size 1.27 1.27))))
        )
        (pin passive line (at -5.08 -25.4 0) (length 3.81)
          (name "Pin_39" (effects (font (size 1.27 1.27))))
          (number "39" (effects (font (size 1.27 1.27))))
        )
        (pin passive line (at 7.62 20.32 180) (length 3.81)
          (name "Pin_4" (effects (font (size 1.27 1.27))))
          (number "4" (effects (font (size 1.27 1.27))))
        )
        (pin passive line (at 7.62 -25.4 180) (length 3.81)
          (name "Pin_40" (effects (font (size 1.27 1.27))))
          (number "40" (effects (font (size 1.27 1.27))))
        )
        (pin passive line (at -5.08 17.78 0) (length 3.81)
          (name "Pin_5" (effects (font (size 1.27 1.27))))
          (number "5" (effects (font (size 1.27 1.27))))
        )
        (pin passive line (at 7.62 17.78 180) (length 3.81)
          (name "Pin_6" (effects (font (size 1.27 1.27))))
          (number "6" (effects (font (size 1.27 1.27))))
        )
        (pin passive line (at -5.08 15.24 0) (length 3.81)
          (name "Pin_7" (effects (font (size 1.27 1.27))))
          (number "7" (effects (font (size 1.27 1.27))))
        )
        (pin passive line (at 7.62 15.24 180) (length 3.81)
          (name "Pin_8" (effects (font (size 1.27 1.27))))
          (number "8" (effects (font (size 1.27 1.27))))
        )
        (pin passive line (at -5.08 12.7 0) (length 3.81)
          (name "Pin_9" (effects (font (size 1.27 1.27))))
          (number "9" (effects (font (size 1.27 1.27))))
        )
      )
    )
    (symbol "power:+3.3V" (power) (pin_names (offset 0)) (in_bom yes) (on_board yes)
      (property "Reference" "#PWR" (id 0) (at 0 -3.81 0)
        (effects (font (size 1.27 1.27)) hide)
      )
      (property "Value" "+3.3V" (id 1) (at 0 3.556 0)
        (effects (font (size 1.27 1.27)))
      )
      (property "Footprint" "" (id 2) (at 0 0 0)
        (effects (font (size 1.27 1.27)) hide)
      )
      (property "Datasheet" "" (id 3) (at 0 0 0)
        (effects (font (size 1.27 1.27)) hide)
      )
      (property "ki_keywords" "power-flag" (id 4) (at 0 0 0)
        (effects (font (size 1.27 1.27)) hide)
      )
      (property "ki_description" "Power symbol creates a global label with name \"+3.3V\"" (id 5) (at 0 0 0)
        (effects (font (size 1.27 1.27)) hide)
      )
      (symbol "+3.3V_0_1"
        (polyline
          (pts
            (xy -0.762 1.27)
            (xy 0 2.54)
          )
          (stroke (width 0) (type default) (color 0 0 0 0))
          (fill (type none))
        )
        (polyline
          (pts
            (xy 0 0)
            (xy 0 2.54)
          )
          (stroke (width 0) (type default) (color 0 0 0 0))
          (fill (type none))
        )
        (polyline
          (pts
            (xy 0 2.54)
            (xy 0.762 1.27)
          )
          (stroke (width 0) (type default) (color 0 0 0 0))
          (fill (type none))
        )
      )
      (symbol "+3.3V_1_1"
        (pin power_in line (at 0 0 90) (length 0) hide
          (name "+3V3" (effects (font (size 1.27 1.27))))
          (number "1" (effects (font (size 1.27 1.27))))
        )
      )
    )
    (symbol "power:GND" (power) (pin_names (offset 0)) (in_bom yes) (on_board yes)
      (property "Reference" "#PWR" (id 0) (at 0 -6.35 0)
        (effects (font (size 1.27 1.27)) hide)
      )
      (property "Value" "GND" (id 1) (at 0 -3.81 0)
        (effects (font (size 1.27 1.27)))
      )
      (property "Footprint" "" (id 2) (at 0 0 0)
        (effects (font (size 1.27 1.27)) hide)
      )
      (property "Datasheet" "" (id 3) (at 0 0 0)
        (effects (font (size 1.27 1.27)) hide)
      )
      (property "ki_keywords" "power-flag" (id 4) (at 0 0 0)
        (effects (font (size 1.27 1.27)) hide)
      )
      (property "ki_description" "Power symbol creates a global label with name \"GND\" , ground" (id 5) (at 0 0 0)
        (effects (font (size 1.27 1.27)) hide)
      )
      (symbol "GND_0_1"
        (polyline
          (pts
            (xy 0 0)
            (xy 0 -1.27)
            (xy 1.27 -1.27)
            (xy 0 -2.54)
            (xy -1.27 -1.27)
            (xy 0 -1.27)
          )
          (stroke (width 0) (type default) (color 0 0 0 0))
          (fill (type none))
        )
      )
      (symbol "GND_1_1"
        (pin power_in line (at 0 0 270) (length 0) hide
          (name "GND" (effects (font (size 1.27 1.27))))
          (number "1" (effects (font (size 1.27 1.27))))
        )
      )
    )
    (symbol "power:VBUS" (power) (pin_names (offset 0)) (in_bom yes) (on_board yes)
      (property "Reference" "#PWR" (id 0) (at 0 -3.81 0)
        (effects (font (size 1.27 1.27)) hide)
      )
      (property "Value" "VBUS" (id 1) (at 0 3.81 0)
        (effects (font (size 1.27 1.27)))
      )
      (property "Footprint" "" (id 2) (at 0 0 0)
        (effects (font (size 1.27 1.27)) hide)
      )
      (property "Datasheet" "" (id 3) (at 0 0 0)
        (effects (font (size 1.27 1.27)) hide)
      )
      (property "ki_keywords" "power-flag" (id 4) (at 0 0 0)
        (effects (font (size 1.27 1.27)) hide)
      )
      (property "ki_description" "Power symbol creates a global label with name \"VBUS\"" (id 5) (at 0 0 0)
        (effects (font (size 1.27 1.27)) hide)
      )
      (symbol "VBUS_0_1"
        (polyline
          (pts
            (xy -0.762 1.27)
            (xy 0 2.54)
          )
          (stroke (width 0) (type default) (color 0 0 0 0))
          (fill (type none))
        )
        (polyline
          (pts
            (xy 0 0)
            (xy 0 2.54)
          )
          (stroke (width 0) (type default) (color 0 0 0 0))
          (fill (type none))
        )
        (polyline
          (pts
            (xy 0 2.54)
            (xy 0.762 1.27)
          )
          (stroke (width 0) (type default) (color 0 0 0 0))
          (fill (type none))
        )
      )
      (symbol "VBUS_1_1"
        (pin power_in line (at 0 0 90) (length 0) hide
          (name "VBUS" (effects (font (size 1.27 1.27))))
          (number "1" (effects (font (size 1.27 1.27))))
        )
      )
    )
  )

  (junction (at 248.285 72.39) (diameter 0) (color 0 0 0 0)
    (uuid 4c843bdb-6c9e-40dd-85e2-0567846e18ba)
  )
  (junction (at 242.57 26.67) (diameter 0) (color 0 0 0 0)
    (uuid 67753a30-8f7f-40f0-8d90-7ebfd086a028)
  )

  (no_connect (at 246.38 49.53) (uuid 04180427-de75-4b3b-9aee-00b35268037e))
  (no_connect (at 262.89 46.99) (uuid 07941a1e-fc59-485b-804f-e5eb8a5fcb18))
  (no_connect (at 262.89 57.15) (uuid 12403202-7621-41e0-8412-7451d7b09aaa))
  (no_connect (at 262.89 39.37) (uuid 14686823-6948-46d6-8fe6-d3ab841b0ba9))
  (no_connect (at 262.89 59.69) (uuid 1de199df-3064-4e39-b18b-2aa0a1c37e41))
  (no_connect (at 262.89 49.53) (uuid 27279748-062a-4e8a-b556-1bd1b0e3b661))
  (no_connect (at 246.38 44.45) (uuid 31ae2ff7-7621-41a0-8337-9c324fe7d21a))
  (no_connect (at 246.38 54.61) (uuid 3b7207cc-0bfd-4c7e-b9be-e3aaee2309b9))
  (no_connect (at 246.38 57.15) (uuid 483b8f11-52ae-450a-9324-d9f0c34139f3))
  (no_connect (at 262.89 67.31) (uuid 4a66f376-93db-4446-a247-0e3535d8495b))
  (no_connect (at 262.89 34.29) (uuid 59959d26-39e5-4b89-96ae-0be1efbd1145))
  (no_connect (at 262.89 62.23) (uuid 5bf5e658-02dc-4878-be4a-4080a49014d6))
  (no_connect (at 262.89 69.85) (uuid 684b832e-2326-44be-8720-c9ea6330fe71))
  (no_connect (at 262.89 64.77) (uuid 7122a679-0d1d-4bc8-a92d-965bd8303494))
  (no_connect (at 246.38 52.07) (uuid 755ca53d-2dd3-42fd-85b0-8218f2753bdc))
  (no_connect (at 262.89 54.61) (uuid 7d7af4f4-ea85-443e-a4d2-7814f1a31fa0))
  (no_connect (at 262.89 31.75) (uuid 81277c52-1389-49fe-9d6c-cc1a3cea1f7d))
  (no_connect (at 246.38 34.29) (uuid 8759f374-5e05-4350-8b59-b3c99a65e158))
  (no_connect (at 417.195 75.565) (uuid 88668202-3f0b-4d07-84d4-dcd790f57272))
  (no_connect (at 262.89 52.07) (uuid a63fb1ee-0fb6-43c0-a439-b1d4a854010c))
  (no_connect (at 246.38 59.69) (uuid a8a0c780-e374-4b11-9834-fa797484e09e))
  (no_connect (at 246.38 41.91) (uuid ad95eae7-dbba-4b41-aa9a-b85fd6a19ce7))
  (no_connect (at 246.38 62.23) (uuid bafb2ec6-570d-4e56-83f2-127612477cbe))
  (no_connect (at 246.38 46.99) (uuid c2fba1f8-b554-49b6-b6ac-1a246a0368d5))
  (no_connect (at 262.89 26.67) (uuid cf76941b-7cb7-403f-a724-5c62005145fb))
  (no_connect (at 246.38 69.85) (uuid d09db827-9281-452a-9907-71875c86f5cc))
  (no_connect (at 246.38 36.83) (uuid d8dd8167-67ca-482c-9afd-9fc1f97d294c))
  (no_connect (at 262.89 29.21) (uuid ea013a3f-712a-4034-aa66-dccc401f3edc))
  (no_connect (at 262.89 36.83) (uuid f16f54c1-75c4-436f-a0ba-92aa469353ee))
  (no_connect (at 246.38 39.37) (uuid f20540ff-6974-4059-aa2c-49c735796b3c))

  (wire (pts (xy 246.38 46.99) (xy 250.19 46.99))
    (stroke (width 0) (type default) (color 0 0 0 0))
    (uuid 0a1a4d88-972a-46ce-b25e-6cb796bd41f7)
  )
  (wire (pts (xy 248.285 24.13) (xy 248.285 72.39))
    (stroke (width 0) (type default) (color 0 0 0 0))
    (uuid 1e48966e-d29d-4521-8939-ec8ac570431d)
  )
  (wire (pts (xy 262.89 24.13) (xy 273.05 24.13))
    (stroke (width 0) (type default) (color 0 0 0 0))
    (uuid 28e37b45-f843-47c2-85c9-ca19f5430ece)
  )
  (wire (pts (xy 246.38 39.37) (xy 250.19 39.37))
    (stroke (width 0) (type default) (color 0 0 0 0))
    (uuid 29bb7297-26fb-4776-9266-2355d022bab0)
  )
  (wire (pts (xy 246.38 59.69) (xy 250.19 59.69))
    (stroke (width 0) (type default) (color 0 0 0 0))
    (uuid 30c33e3e-fb78-498d-bffe-76273d527004)
  )
  (wire (pts (xy 246.38 44.45) (xy 250.19 44.45))
    (stroke (width 0) (type default) (color 0 0 0 0))
    (uuid 36d783e7-096f-4c97-9672-7e08c083b87b)
  )
  (wire (pts (xy 262.89 44.45) (xy 266.7 44.45))
    (stroke (width 0) (type default) (color 0 0 0 0))
    (uuid 3e915099-a18e-49f4-89bb-abe64c2dade5)
  )
  (wire (pts (xy 246.38 69.85) (xy 250.19 69.85))
    (stroke (width 0) (type default) (color 0 0 0 0))
    (uuid 3f8a5430-68a9-4732-9b89-4e00dd8ae219)
  )
  (wire (pts (xy 242.57 29.21) (xy 242.57 26.67))
    (stroke (width 0) (type default) (color 0 0 0 0))
    (uuid 4185c36c-c66e-4dbd-be5d-841e551f4885)
  )
  (wire (pts (xy 246.38 67.31) (xy 250.19 67.31))
    (stroke (width 0) (type default) (color 0 0 0 0))
    (uuid 42ff012d-5eb7-42b9-bb45-415cf26799c6)
  )
  (wire (pts (xy 242.57 26.67) (xy 250.19 26.67))
    (stroke (width 0) (type default) (color 0 0 0 0))
    (uuid 4d4fecdd-be4a-47e9-9085-2268d5852d8f)
  )
  (wire (pts (xy 273.05 26.67) (xy 273.05 24.13))
    (stroke (width 0) (type default) (color 0 0 0 0))
    (uuid 4fa1bcb3-a185-40c6-adcb-4795ab46c259)
  )
  (wire (pts (xy 246.38 52.07) (xy 250.19 52.07))
    (stroke (width 0) (type default) (color 0 0 0 0))
    (uuid 57276367-9ce4-4738-88d7-6e8cb94c966c)
  )
  (wire (pts (xy 262.89 72.39) (xy 264.795 72.39))
    (stroke (width 0) (type default) (color 0 0 0 0))
    (uuid 5c30b9b4-3014-4f50-9329-27a539b67e01)
  )
  (wire (pts (xy 234.95 31.75) (xy 250.19 31.75))
    (stroke (width 0) (type default) (color 0 0 0 0))
    (uuid 616287d9-a51f-498c-8b91-be46a0aa3a7f)
  )
  (wire (pts (xy 250.19 72.39) (xy 248.285 72.39))
    (stroke (width 0) (type default) (color 0 0 0 0))
    (uuid 6ffdf05e-e119-49f9-85e9-13e4901df42a)
  )
  (wire (pts (xy 248.285 72.39) (xy 248.285 75.565))
    (stroke (width 0) (type default) (color 0 0 0 0))
    (uuid 72b36951-3ec7-4569-9c88-cf9b4afe1cae)
  )
  (wire (pts (xy 246.38 34.29) (xy 250.19 34.29))
    (stroke (width 0) (type default) (color 0 0 0 0))
    (uuid 96de0051-7945-413a-9219-1ab367546962)
  )
  (wire (pts (xy 246.38 49.53) (xy 250.19 49.53))
    (stroke (width 0) (type default) (color 0 0 0 0))
    (uuid bdf40d30-88ff-4479-bad1-69529464b61b)
  )
  (wire (pts (xy 246.38 62.23) (xy 250.19 62.23))
    (stroke (width 0) (type default) (color 0 0 0 0))
    (uuid c3b3d7f4-943f-4cff-b180-87ef3e1bcbff)
  )
  (wire (pts (xy 264.795 72.39) (xy 264.795 75.565))
    (stroke (width 0) (type default) (color 0 0 0 0))
    (uuid c4cab9c5-d6e5-4660-b910-603a51b56783)
  )
  (wire (pts (xy 246.38 41.91) (xy 250.19 41.91))
    (stroke (width 0) (type default) (color 0 0 0 0))
    (uuid cb6062da-8dcd-4826-92fd-4071e9e97213)
  )
  (wire (pts (xy 250.19 29.21) (xy 242.57 29.21))
    (stroke (width 0) (type default) (color 0 0 0 0))
    (uuid cc48dd41-7768-48d3-b096-2c4cc2126c9d)
  )
  (wire (pts (xy 246.38 57.15) (xy 250.19 57.15))
    (stroke (width 0) (type default) (color 0 0 0 0))
    (uuid d692b5e6-71b2-4fa6-bc83-618add8d8fef)
  )
  (wire (pts (xy 242.57 26.67) (xy 242.57 23.495))
    (stroke (width 0) (type default) (color 0 0 0 0))
    (uuid db7ba45c-61e6-4933-8104-4f0d4ab65f34)
  )
  (wire (pts (xy 246.38 54.61) (xy 250.19 54.61))
    (stroke (width 0) (type default) (color 0 0 0 0))
    (uuid e5217a0c-7f55-4c30-adda-7f8d95709d1b)
  )
  (wire (pts (xy 262.89 41.91) (xy 266.7 41.91))
    (stroke (width 0) (type default) (color 0 0 0 0))
    (uuid eab9c52c-3aa0-43a7-bc7f-7e234ff1e9f4)
  )
  (wire (pts (xy 246.38 36.83) (xy 250.19 36.83))
    (stroke (width 0) (type default) (color 0 0 0 0))
    (uuid eb8d02e9-145c-465d-b6a8-bae84d47a94b)
  )
  (wire (pts (xy 246.38 64.77) (xy 250.19 64.77))
    (stroke (width 0) (type default) (color 0 0 0 0))
    (uuid f64497d1-1d62-44a4-8e5e-6fba4ebc969a)
  )
  (wire (pts (xy 250.19 24.13) (xy 248.285 24.13))
    (stroke (width 0) (type default) (color 0 0 0 0))
    (uuid f8f3a9fc-1e34-4573-a767-508104e8d242)
  )
  (wire (pts (xy 234.95 26.67) (xy 234.95 31.75))
    (stroke (width 0) (type default) (color 0 0 0 0))
    (uuid fa00d3f4-bb71-4b1d-aa40-ae9267e2c41f)
  )

  (text "Main Bus" (at 252.095 16.51 0)
    (effects (font (size 1.27 1.27)) (justify left bottom))
    (uuid 4e27930e-1827-4788-aa6b-487321d46602)
  )

  (label "UART1_RX_BUS" (at 266.7 44.45 0)
    (effects (font (size 1.524 1.524)) (justify left bottom))
    (uuid 240c10af-51b5-420e-a6f4-a2c8f5db1db5)
  )
  (label "UART1_TX_BUS" (at 266.7 41.91 0)
    (effects (font (size 1.524 1.524)) (justify left bottom))
    (uuid 2d697cf0-e02e-4ed1-a048-a704dab0ee43)
  )
  (label "BATT+" (at 246.38 67.31 180)
    (effects (font (size 1.524 1.524)) (justify right bottom))
    (uuid 4e315e69-0417-463a-8b7f-469a08d1496e)
  )
  (label "BATT+_bck" (at 246.38 64.77 180)
    (effects (font (size 1.524 1.524)) (justify right bottom))
    (uuid 6a2b20ae-096c-4d9f-92f8-2087c865914f)
  )

  (symbol (lib_id "power:GND") (at 248.285 75.565 0) (unit 1)
    (in_bom yes) (on_board yes)
    (uuid 00000000-0000-0000-0000-00005cb223f4)
    (property "Reference" "#PWR0115" (id 0) (at 248.285 81.915 0)
      (effects (font (size 1.27 1.27)) hide)
    )
    (property "Value" "GND" (id 1) (at 248.412 79.9592 0))
    (property "Footprint" "" (id 2) (at 248.285 75.565 0)
      (effects (font (size 1.27 1.27)) hide)
    )
    (property "Datasheet" "" (id 3) (at 248.285 75.565 0)
      (effects (font (size 1.27 1.27)) hide)
    )
    (pin "1" (uuid 8c109c3d-93c9-404b-9345-0aa37e8f5570))
  )

  (symbol (lib_id "power:GND") (at 273.05 26.67 0) (unit 1)
    (in_bom yes) (on_board yes)
    (uuid 00000000-0000-0000-0000-00005cb22424)
    (property "Reference" "#PWR0118" (id 0) (at 273.05 33.02 0)
      (effects (font (size 1.27 1.27)) hide)
    )
    (property "Value" "GND" (id 1) (at 273.177 31.0642 0))
    (property "Footprint" "" (id 2) (at 273.05 26.67 0)
      (effects (font (size 1.27 1.27)) hide)
    )
    (property "Datasheet" "" (id 3) (at 273.05 26.67 0)
      (effects (font (size 1.27 1.27)) hide)
    )
    (pin "1" (uuid cc63cae6-6883-4174-9c15-3c3b7e3f0ac8))
  )

  (symbol (lib_id "power:+3.3V") (at 242.57 23.495 0) (unit 1)
    (in_bom yes) (on_board yes)
    (uuid 00000000-0000-0000-0000-00005cb3e45a)
    (property "Reference" "#PWR0113" (id 0) (at 242.57 27.305 0)
      (effects (font (size 1.27 1.27)) hide)
    )
    (property "Value" "+3.3V" (id 1) (at 242.57 19.939 0))
    (property "Footprint" "" (id 2) (at 242.57 23.495 0)
      (effects (font (size 1.27 1.27)) hide)
    )
    (property "Datasheet" "" (id 3) (at 242.57 23.495 0)
      (effects (font (size 1.27 1.27)) hide)
    )
    (pin "1" (uuid 23119e5f-df70-49d1-8824-f7efd6e6dee2))
  )

  (symbol (lib_id "Connector_Generic:Conn_02x20_Odd_Even") (at 255.27 46.99 0) (unit 1)
    (in_bom yes) (on_board yes)
    (uuid 00000000-0000-0000-0000-00005cb48dd9)
    (property "Reference" "J102" (id 0) (at 256.54 18.6182 0))
    (property "Value" "Main Bus" (id 1) (at 256.54 20.9296 0))
    (property "Footprint" "Connector_PinHeader_2.54mm:PinHeader_2x20_P2.54mm_Vertical" (id 2) (at 255.27 46.99 0)
      (effects (font (size 1.27 1.27)) hide)
    )
    (property "Datasheet" "~" (id 3) (at 255.27 46.99 0)
      (effects (font (size 1.27 1.27)) hide)
    )
    (pin "1" (uuid 3531cb72-846b-43d0-8159-e4c8c74dbd25))
    (pin "10" (uuid f174cdf2-3b8b-4f82-96ba-d018983561cc))
    (pin "11" (uuid 68382ae3-bd09-4f32-b933-fb93b362f638))
    (pin "12" (uuid 7d560ad2-03c8-4b1e-94f5-1af3bcfa42cf))
    (pin "13" (uuid 67580e59-f9d5-4c31-8a1c-ea481f467197))
    (pin "14" (uuid 8317a7e5-4053-4008-9e36-c5e5d3db7393))
    (pin "15" (uuid 05b3f0db-b5dc-4713-9075-4cf3d2fc3f81))
    (pin "16" (uuid 974b6d60-1c85-4f8d-8607-61381a9e9651))
    (pin "17" (uuid 364a80e3-7e7e-4d36-a80f-2149627f6fce))
    (pin "18" (uuid 40bd5766-cdff-47b4-b15b-0032560dd450))
    (pin "19" (uuid 89b714d0-a96a-45d9-aada-054257a96b87))
    (pin "2" (uuid e181b3a6-41f1-4cba-b768-d648ba7a2c37))
    (pin "20" (uuid 73a74953-3539-44e0-baf3-eff19268a9fa))
    (pin "21" (uuid e93e990f-0989-43ec-815b-b0b2f9db1471))
    (pin "22" (uuid 3288fb92-33f5-4d26-be9d-946dae109c62))
    (pin "23" (uuid dabf623e-759a-4896-a9a8-f5a505715bef))
    (pin "24" (uuid ef1328a5-1bdf-401b-9b6c-4c4c09f174ea))
    (pin "25" (uuid 3c73d66f-f22e-4402-83ae-0957381cebec))
    (pin "26" (uuid f378709b-aea1-4d89-a475-306fc6593ebd))
    (pin "27" (uuid 7d782603-68ee-475e-a207-caa2ce7b7187))
    (pin "28" (uuid afc3710c-5ed8-4c39-a5da-a42b995cfb14))
    (pin "29" (uuid 92fa5222-979c-420b-ae31-4b3aa417966d))
    (pin "3" (uuid 3f82a874-eb57-49f9-b2dc-abfdbbb4016a))
    (pin "30" (uuid 96c0048f-03f8-408d-9cad-70188b2d9d8c))
    (pin "31" (uuid 4b3869c3-c988-4bf0-804f-6039f83f76c4))
    (pin "32" (uuid 4b48e246-d696-46cc-b705-53d13122a51b))
    (pin "33" (uuid 247da9e8-616c-4371-925c-b395a31672d4))
    (pin "34" (uuid 872eef3f-888b-4180-a9df-d8c49b574cb1))
    (pin "35" (uuid b187cfbb-0e2a-4d7d-9f9f-130fe95f2bf3))
    (pin "36" (uuid 11e01882-a9be-4c18-82b5-ec71b4b7934f))
    (pin "37" (uuid 9e866218-2412-4b23-a27a-31d3f2c2b027))
    (pin "38" (uuid 7e9356a0-1f09-4ad1-a924-f23dcdeb36d8))
    (pin "39" (uuid 24e984ad-7d9f-4ac7-819b-358b6e19c97f))
    (pin "4" (uuid ef600209-0a5a-4e43-ad1f-763946aeb643))
    (pin "40" (uuid 7fb03ecf-13dc-40e1-973b-2e2bad4ef15d))
    (pin "5" (uuid 70dfcaf7-07a6-40b0-aafd-6ce06d6e794c))
    (pin "6" (uuid 2c5f3129-e0cd-43fe-afad-b677bf741a53))
    (pin "7" (uuid 0241efd6-9329-48ae-8fe4-c21ea77b31b9))
    (pin "8" (uuid 0e08892b-78f5-4149-9c6a-9bbbed3be1af))
    (pin "9" (uuid de259ffa-59cd-469e-b575-5591576e5458))
  )

  (symbol (lib_id "power:VBUS") (at 234.95 26.67 0) (unit 1)
    (in_bom yes) (on_board yes)
    (uuid 00000000-0000-0000-0000-00005ddf14ce)
    (property "Reference" "#PWR0112" (id 0) (at 234.95 30.48 0)
      (effects (font (size 1.27 1.27)) hide)
    )
    (property "Value" "VBUS" (id 1) (at 235.331 22.2758 0))
    (property "Footprint" "" (id 2) (at 234.95 26.67 0)
      (effects (font (size 1.27 1.27)) hide)
    )
    (property "Datasheet" "" (id 3) (at 234.95 26.67 0)
      (effects (font (size 1.27 1.27)) hide)
    )
    (pin "1" (uuid cd1e200c-abb7-440c-964e-3bc302b9394c))
  )

  (symbol (lib_id "power:GND") (at 264.795 75.565 0) (unit 1)
    (in_bom yes) (on_board yes)
    (uuid 10ddd25b-f490-4d65-8ce2-552da84fec2f)
    (property "Reference" "#PWR?" (id 0) (at 264.795 81.915 0)
      (effects (font (size 1.27 1.27)) hide)
    )
    (property "Value" "GND" (id 1) (at 264.922 79.9592 0))
    (property "Footprint" "" (id 2) (at 264.795 75.565 0)
      (effects (font (size 1.27 1.27)) hide)
    )
    (property "Datasheet" "" (id 3) (at 264.795 75.565 0)
      (effects (font (size 1.27 1.27)) hide)
    )
    (pin "1" (uuid 38aad6d7-9f9c-461a-9a59-f6f920dfcb48))
  )

  (sheet_instances
    (path "/" (page "1"))
  )

  (symbol_instances
    (path "/00000000-0000-0000-0000-00005ddf14ce"
      (reference "#PWR0112") (unit 1) (value "VBUS") (footprint "")
    )
    (path "/00000000-0000-0000-0000-00005cb3e45a"
      (reference "#PWR0113") (unit 1) (value "+3.3V") (footprint "")
    )
    (path "/00000000-0000-0000-0000-00005cb223f4"
      (reference "#PWR0115") (unit 1) (value "GND") (footprint "")
    )
    (path "/00000000-0000-0000-0000-00005cb22424"
      (reference "#PWR0118") (unit 1) (value "GND") (footprint "")
    )
    (path "/10ddd25b-f490-4d65-8ce2-552da84fec2f"
      (reference "#PWR?") (unit 1) (value "GND") (footprint "")
    )
    (path "/00000000-0000-0000-0000-00005cb48dd9"
      (reference "J102") (unit 1) (value "Main Bus") (footprint "Connector_PinHeader_2.54mm:PinHeader_2x20_P2.54mm_Vertical")
    )
  )
)
